<?xml version="1.0" encoding="UTF-8"?>
<svg width="31px" height="31px" viewBox="0 0 31 31" version="1.1" xmlns="http://www.w3.org/2000/svg" xmlns:xlink="http://www.w3.org/1999/xlink">
    <!-- Generator: Sketch 51.1 (57501) - http://www.bohemiancoding.com/sketch -->
    <title>calendar (3)</title>
    <desc>Created with Sketch.</desc>
    <defs></defs>
    <g id="Employees_Web-App" stroke="none" stroke-width="1" fill="none" fill-rule="evenodd">
        <g id="Web_Dropdown" transform="translate(-435.000000, -334.000000)" fill="#DE202E">
            <g id="Group-2" transform="translate(435.000000, 334.000000)">
                <g id="calendar-(3)">
                    <g>
                        <path d="M24.5,24 C23.9485,24 23.5,23.5515 23.5,23 C23.5,22.4485 23.9485,22 24.5,22 C25.0515,22 25.5,22.4485 25.5,23 L26.5,23 C26.5,22.071 25.86,21.2945 25,21.071 L25,20 L24,20 L24,21.071 C23.14,21.2945 22.5,22.071 22.5,23 C22.5,24.103 23.397,25 24.5,25 C25.0515,25 25.5,25.4485 25.5,26 C25.5,26.5515 25.0515,27 24.5,27 C23.9485,27 23.5,26.5515 23.5,26 L22.5,26 C22.5,26.929 23.14,27.7055 24,27.929 L24,29 L25,29 L25,27.929 C25.86,27.7055 26.5,26.929 26.5,26 C26.5,24.897 25.603,24 24.5,24 Z" id="Shape" fill-rule="nonzero"></path>
                        <rect id="Rectangle-path" fill-rule="nonzero" x="28" y="24" width="1" height="1"></rect>
                        <rect id="Rectangle-path" fill-rule="nonzero" x="20" y="24" width="1" height="1"></rect>
                        <path d="M25,18.0255 L25,2 L22,2 L22,1.5 C22,0.673 21.327,0 20.5,0 C19.673,0 19,0.673 19,1.5 L19,2 L18,2 L18,1.5 C18,0.673 17.327,0 16.5,0 C15.673,0 15,0.673 15,1.5 L15,2 L14,2 L14,1.5 C14,0.673 13.327,0 12.5,0 C11.673,0 11,0.673 11,1.5 L11,2 L10,2 L10,1.5 C10,0.673 9.327,0 8.5,0 C7.673,0 7,0.673 7,1.5 L7,2 L6,2 L6,1.5 C6,0.673 5.327,0 4.5,0 C3.673,0 3,0.673 3,1.5 L3,2 L0,2 L0,25 L18.0255,25 C18.282,28.3505 21.0845,31 24.5,31 C26.059,31 27.567,30.4395 28.746,29.4215 L28.0925,28.6645 C27.095,29.526 25.819,30 24.5,30 C21.4675,30 19,27.5325 19,24.5 C19,21.4675 21.4675,19 24.5,19 C27.5325,19 30,21.4675 30,24.5 C30,25.768 29.581,26.959 28.7875,27.945 L29.567,28.572 C30.491,27.423 31,25.977 31,24.5 C31,21.0845 28.3505,18.282 25,18.0255 Z M20,1.5 C20,1.2245 20.2245,1 20.5,1 C20.7755,1 21,1.2245 21,1.5 L21,3.5 C21,3.7755 20.7755,4 20.5,4 C20.2245,4 20,3.7755 20,3.5 L20,1.5 Z M16,1.5 C16,1.2245 16.2245,1 16.5,1 C16.7755,1 17,1.2245 17,1.5 L17,3.5 C17,3.7755 16.7755,4 16.5,4 C16.2245,4 16,3.7755 16,3.5 L16,1.5 Z M12,1.5 C12,1.2245 12.2245,1 12.5,1 C12.7755,1 13,1.2245 13,1.5 L13,3.5 C13,3.7755 12.7755,4 12.5,4 C12.2245,4 12,3.7755 12,3.5 L12,1.5 Z M8,1.5 C8,1.2245 8.2245,1 8.5,1 C8.7755,1 9,1.2245 9,1.5 L9,3.5 C9,3.7755 8.7755,4 8.5,4 C8.2245,4 8,3.7755 8,3.5 L8,1.5 Z M4,1.5 C4,1.2245 4.2245,1 4.5,1 C4.7755,1 5,1.2245 5,1.5 L5,3.5 C5,3.7755 4.7755,4 4.5,4 C4.2245,4 4,3.7755 4,3.5 L4,1.5 Z M22,18 L19,18 L19,15 L22,15 L22,18 Z M22,14 L19,14 L19,11 L22,11 L22,14 Z M22,10 L19,10 L19,7 L22,7 L22,10 Z M24,18.0255 C23.6585,18.0515 23.325,18.1045 23,18.182 L23,6 L14,6 L14,10 L2,10 L2,23 L11,23 L11,19 L21.0515,19 C19.3555,20.0675 18.187,21.8925 18.0255,24 L1,24 L1,3 L3,3 L3,3.5 C3,4.327 3.673,5 4.5,5 C5.327,5 6,4.327 6,3.5 L6,3 L7,3 L7,3.5 C7,4.327 7.673,5 8.5,5 C9.327,5 10,4.327 10,3.5 L10,3 L11,3 L11,3.5 C11,4.327 11.673,5 12.5,5 C13.327,5 14,4.327 14,3.5 L14,3 L15,3 L15,3.5 C15,4.327 15.673,5 16.5,5 C17.327,5 18,4.327 18,3.5 L18,3 L19,3 L19,3.5 C19,4.327 19.673,5 20.5,5 C21.327,5 22,4.327 22,3.5 L22,3 L24,3 L24,18.0255 Z M15,14 L15,11 L18,11 L18,14 L15,14 Z M18,15 L18,18 L15,18 L15,15 L18,15 Z M15,10 L15,7 L18,7 L18,10 L15,10 Z M11,14 L11,11 L14,11 L14,14 L11,14 Z M14,15 L14,18 L11,18 L11,15 L14,15 Z M7,18 L7,15 L10,15 L10,18 L7,18 Z M10,19 L10,22 L7,22 L7,19 L10,19 Z M7,14 L7,11 L10,11 L10,14 L7,14 Z M3,18 L3,15 L6,15 L6,18 L3,18 Z M6,19 L6,22 L3,22 L3,19 L6,19 Z M3,14 L3,11 L6,11 L6,14 L3,14 Z" id="Shape" fill-rule="nonzero"></path>
                    </g>
                </g>
            </g>
        </g>
    </g>
</svg>