<?xml version="1.0" encoding="UTF-8"?>
<svg width="169px" height="142px" viewBox="0 0 169 142" version="1.1" xmlns="http://www.w3.org/2000/svg" xmlns:xlink="http://www.w3.org/1999/xlink">
    <!-- Generator: Sketch 51.1 (57501) - http://www.bohemiancoding.com/sketch -->
    <title>ADp</title>
    <desc>Created with Sketch.</desc>
    <defs>
        <rect id="path-1" x="0" y="0" width="191" height="142"></rect>
    </defs>
    <g id="Employees_Web-App" stroke="none" stroke-width="1" fill="none" fill-rule="evenodd">
        <g id="Web_Dropdown" transform="translate(-776.000000, -305.000000)">
            <g id="ADp" transform="translate(754.000000, 305.000000)">
                <g id="Bitmap">
                    <mask id="mask-2" fill="white">
                        <use xlink:href="#path-1"></use>
                    </mask>
                    <g id="Mask" fill-rule="nonzero"></g>
                    <g id="adp" opacity="0.0815848214" mask="url(#mask-2)">
                        <g transform="translate(128.017429, 88.017429) rotate(-45.000000) translate(-128.017429, -88.017429) translate(36.160304, -1.169431)">
                            <g>
                                <path d="M136.551181,50.6504065 L2.8976378,50.6504065 L2.8976378,127.349593 L181.102362,127.349593 L181.102362,50.6504065 L136.551181,50.6504065 Z M71.2095225,89 L47.448819,89 L47.448819,71.3002722 C47.448819,68.0423703 50.1080788,65.3999965 53.3892716,65.3999965 L65.2690699,65.3999965 C68.5491559,65.3999965 71.2095225,68.0423703 71.2095225,71.3002722 L71.2095225,89 Z M103.879799,100.800551 C103.879799,107.317454 98.5612785,112.600003 92,112.600003 L80.1190948,112.600003 L80.1190948,65.3999965 L89.0297737,65.3999965 C95.5910522,65.3999965 103.879799,70.6836451 103.879799,77.2005478 L103.879799,100.800551 Z M136.551181,83.0997244 C136.551181,86.3587253 133.890815,89 130.610728,89 L112.790477,89 L112.790477,65.3999965 L130.610728,65.3999965 C133.890815,65.3999965 136.551181,68.0423703 136.551181,71.3002722 L136.551181,83.0997244 Z" id="Shape" fill="#DE202E" fill-rule="nonzero"></path>
                                <path d="M65.1965804,65.1219512 L53.6065692,65.1219512 C50.4054154,65.1219512 47.8110236,67.7144411 47.8110236,70.9108387 L47.8110236,88.2764228 L70.992126,88.2764228 L70.992126,70.9108387 C70.992126,67.7144411 68.3966544,65.1219512 65.1965804,65.1219512 Z" id="Shape" fill="#DE202E" fill-rule="nonzero"></path>
                                <path d="M88.3783576,65.1219512 L79.6850394,65.1219512 L79.6850394,112.878049 L91.2761303,112.878049 C97.6773578,112.878049 102.866142,107.533263 102.866142,100.93958 L102.866142,77.0615316 C102.866142,70.4678495 94.779585,65.1219512 88.3783576,65.1219512 Z" id="Shape" fill="#DE202E" fill-rule="nonzero"></path>
                                <path d="M130.393431,65.1219512 L113.007874,65.1219512 L113.007874,88.2764228 L130.393431,88.2764228 C133.593505,88.2764228 136.188976,85.6850113 136.188976,82.4875353 L136.188976,70.9108387 C136.188976,67.7144411 133.593505,65.1219512 130.393431,65.1219512 Z" id="Shape" fill="#DE202E" fill-rule="nonzero"></path>
                                <polygon id="Shape" fill="#FFDADC" fill-rule="nonzero" points="47.8110236 127.349593 136.188976 127.349593 136.188976 141.821138 47.8110236 141.821138"></polygon>
                                <polygon id="Shape" fill="#FFDADC" fill-rule="nonzero" points="47.8110236 36.1788618 136.188976 36.1788618 136.188976 50.6504065 47.8110236 50.6504065"></polygon>
                                <polygon id="Shape" fill="#DE202E" fill-rule="nonzero" points="59.4015748 23.1544715 124.598425 23.1544715 124.598425 28.9430894 59.4015748 28.9430894"></polygon>
                                <polygon id="Shape" fill="#DE202E" fill-rule="nonzero" points="68.0944882 14.4715447 115.905512 14.4715447 115.905512 20.2601626 68.0944882 20.2601626"></polygon>
                                <polygon id="Shape" fill="#DE202E" fill-rule="nonzero" points="59.4015748 147.609756 124.598425 147.609756 124.598425 153.398374 59.4015748 153.398374"></polygon>
                                <polygon id="Shape" fill="#DE202E" fill-rule="nonzero" points="68.0944882 156.292683 115.905512 156.292683 115.905512 162.081301 68.0944882 162.081301"></polygon>
                                <path d="M183.949134,50.1838144 C183.931442,49.9826368 183.890529,49.7836705 183.830817,49.5913359 C183.782164,49.412266 183.714712,49.2376174 183.631779,49.0718117 C183.546635,48.911533 183.447115,48.7600974 183.335433,48.6175047 C183.211587,48.4561205 183.070048,48.3091063 182.914134,48.1786724 C182.848894,48.1222987 182.81351,48.0449227 182.741635,47.997392 L154.32226,28.120622 L154.32226,2.96681405 C154.32226,1.32865503 152.993125,0 151.354375,0 L32.6445191,0 C31.0057692,0 29.6777405,1.32865503 29.6777405,2.96681405 L29.6777405,28.1217273 L1.2672114,47.997392 C1.19533647,48.0449227 1.15995185,48.1222987 1.09471168,48.1786724 C0.938798006,48.3091063 0.797259545,48.457226 0.673413391,48.6175047 C0.560625071,48.7600974 0.462211397,48.911533 0.377067237,49.0718117 C0.293028775,49.2376174 0.226682622,49.412266 0.178028775,49.5913359 C0.117211397,49.7836705 0.0774039877,49.9826368 0.05971168,50.1849197 C0.0353846154,50.2667172 0.0154807692,50.3496201 0,50.433628 L0,127.566372 C0,129.205636 1.32913447,130.533186 2.96788462,130.533186 L29.6777405,130.533186 L29.6777405,175.033186 C29.6777405,176.67245 31.0057692,178 32.6456251,178 L151.355481,178 C152.994231,178 154.32226,176.67245 154.32226,175.033186 L154.32226,130.533186 L181.032115,130.533186 C182.671971,130.533186 184,129.205636 184,127.566372 L184,50.433628 C183.987836,50.3496201 183.970144,50.2667172 183.949134,50.1838144 Z M171.618702,47.4668142 L154.32226,47.4668142 L154.32226,35.3652192 L171.618702,47.4668142 Z M148.38649,5.9336281 L148.38649,47.4668142 L139.483942,47.4668142 L139.483942,35.599558 C139.483942,33.961399 138.154808,32.6338492 136.516058,32.6338492 L47.4839424,32.6338492 C45.8440866,32.6338492 44.5160576,33.961399 44.5160576,35.599558 L44.5160576,47.4668142 L35.612404,47.4668142 L35.612404,5.9336281 L148.38649,5.9336281 Z M50.4518268,47.4668142 L50.4518268,38.5663718 L133.548173,38.5663718 L133.548173,47.4668142 L50.4518268,47.4668142 Z M29.6777405,47.4668142 L12.381298,47.4668142 L29.6777405,35.3652192 L29.6777405,47.4668142 Z M148.38649,172.067477 L35.612404,172.067477 L35.612404,130.533186 L44.5160576,130.533186 L44.5160576,142.400442 C44.5160576,144.038601 45.8440866,145.367256 47.4839424,145.367256 L136.516058,145.367256 C138.154808,145.367256 139.483942,144.038601 139.483942,142.400442 L139.483942,130.533186 L148.38649,130.533186 L148.38649,172.067477 Z M133.548173,130.533186 L133.548173,139.433628 L50.4518268,139.433628 L50.4518268,130.533186 L133.548173,130.533186 Z M178.064231,124.600663 L5.93576923,124.600663 L5.93576923,53.4004423 L178.064231,53.4004423 L178.064231,124.600663 Z" id="Shape" fill="#DE202E" fill-rule="nonzero"></path>
                                <path d="M65.1965265,62.2276423 L53.6066234,62.2276423 C48.8054775,62.2276423 44.9133858,66.2232686 44.9133858,71.1521309 L44.9133858,112.797528 C44.9133858,114.440113 46.2100301,115.772358 47.8111319,115.772358 C49.4111538,115.772358 50.7088773,114.440113 50.7088773,112.797528 L50.7088773,91.9748296 L68.0942723,91.9748296 L68.0942723,112.797528 C68.0942723,114.440113 69.3909163,115.772358 70.992018,115.772358 C72.5920402,115.772358 73.8897638,114.440113 73.8897638,112.797528 L73.8897638,71.1521309 C73.8897638,66.2232686 69.9976724,62.2276423 65.1965265,62.2276423 Z M50.7088773,86.0251704 L50.7088773,71.1521309 C50.7088773,69.5095464 52.0055216,68.1773014 53.6066234,68.1773014 L65.1965265,68.1773014 C66.7965487,68.1773014 68.0942723,69.5095464 68.0942723,71.1521309 L68.0942723,86.0251704 L50.7088773,86.0251704 Z" id="Shape" fill="#FFFFFF" fill-rule="nonzero"></path>
                                <path d="M88.3783846,62.2276423 L79.6851473,62.2276423 C78.0851254,62.2276423 76.7874016,63.5598872 76.7874016,65.2024718 L76.7874016,112.797528 C76.7874016,114.440113 78.0851254,115.772358 79.6851473,115.772358 L91.2761303,115.772358 C99.2730018,115.762383 105.754063,109.108917 105.76378,100.899318 L105.76378,77.1017901 C105.76378,68.7281546 96.4162821,62.2276423 88.3783846,62.2276423 Z M99.968288,100.899318 C99.968288,105.827072 96.0772762,109.822699 91.2761303,109.822699 L82.5828931,109.822699 L82.5828931,68.1773014 L88.3783846,68.1773014 C93.4397229,68.1773014 99.968288,72.5054345 99.968288,77.1017901 L99.968288,100.899318 Z" id="Shape" fill="#FFFFFF" fill-rule="nonzero"></path>
                                <path d="M130.393377,62.2276423 L113.007982,62.2276423 C111.40796,62.2276423 110.110236,63.5598872 110.110236,65.2024718 L110.110236,112.797528 C110.110236,114.440113 111.40796,115.772358 113.007982,115.772358 C114.608004,115.772358 115.905728,114.440113 115.905728,112.797528 L115.905728,91.9748296 L130.393377,91.9748296 C135.194523,91.9748296 139.086614,87.9792035 139.086614,83.0503409 L139.086614,71.1521309 C139.086614,66.2232686 135.194523,62.2276423 130.393377,62.2276423 Z M133.291123,83.0503409 C133.291123,84.694034 131.993399,86.0251704 130.393377,86.0251704 L115.905728,86.0251704 L115.905728,68.1773014 L130.393377,68.1773014 C131.993399,68.1773014 133.291123,69.5095464 133.291123,71.1521309 L133.291123,83.0503409 Z" id="Shape" fill="#FFFFFF" fill-rule="nonzero"></path>
                            </g>
                        </g>
                    </g>
                </g>
            </g>
        </g>
    </g>
</svg>